Geospatial Data and Maps for New South Wales, Australia • nswgeo
…
install.packages('nswgeo')

Examples

The datasets you use with the package will have one column that contains a feature name (Local Health District, Local Government Area, or postal code). You’ll probably also have columns you want to use for faceting and/or colouring points:

library(nswgeo)
library(ggautomap)
library(ggplot2)
library(dplyr, warn.conflicts = FALSE)

data(covid_cases_nsw, package = "nswgeo")
covid_cases_nsw
#> # A tibble: 100 × 5
#>    postcode lga       lhd                 year type 
#>    <chr>    <chr>     <chr>              <int> <chr>
#>  1 2427     Mid-Coast Hunter New England  2022 B    
#>  2 2761     Blacktown Western Sydney      2021 A    
#>  3 2426     Mid-Coast Hunter New England  2022 B    
#>  4 2148     Blacktown Western Sydney      2022 B    
#>  5 2768     Blacktown Western Sydney      2021 A    
#>  6 2766     Blacktown Western Sydney      2021 B    
#>  7 2422     Mid-Coast Hunter New England  2022 B    
#>  8 2415     Mid-Coast Hunter New England  2022 B    
#>  9 2767     Blacktown Western Sydney      2022 B    
#> 10 2768     Blacktown Western Sydney      2022 A    
#> # … with 90 more rows
…
