Concordance between postal areas and local health districts. — poa_lhd_concordance • nswgeo
…
# extract the main LHD for each postcode
poa_lhd_concordance |>
  arrange(desc(FRAC_INCLUDED)) |>
  slice_head(n = 1, by = POA_NAME_2021) |>
  mutate(postcode = POA_NAME_2021, lhd = lhd_name, .keep = "none") |>
  as_tibble()
#> # A tibble: 671 × 2
#>    postcode lhd         
#>    <chr>    <chr>       
#>  1 2549     Southern NSW
#>  2 2632     Southern NSW
#>  3 2548     Southern NSW
#>  4 2550     Southern NSW
#>  5 2551     Southern NSW
#>  6 2625     Southern NSW
#>  7 2631     Southern NSW
#>  8 2545     Southern NSW
#>  9 2546     Southern NSW
#> 10 2630     Southern NSW
#> # ℹ 661 more rows
…
