…
# extract the main LHD for each postcode
poa_lhd_concordance |>
  arrange(desc(FRAC_INCLUDED)) |>
  slice_head(n = 1, by = POA_NAME_2021) |>
  mutate(postcode = POA_NAME_2021, lhd = LHD_NAME, .keep = "none") |>
  as_tibble()
#> # A tibble: 646 × 2
#>    postcode lhd                                       
#>    <chr>    <chr>                                     
#>  1 2016     Sydney Local Health District              
#>  2 2019     South Eastern Sydney Local Health District
#>  3 2021     South Eastern Sydney Local Health District
#>  4 2022     South Eastern Sydney Local Health District
#>  5 2023     South Eastern Sydney Local Health District
#>  6 2025     South Eastern Sydney Local Health District
#>  7 2031     South Eastern Sydney Local Health District
#>  8 2032     South Eastern Sydney Local Health District
#>  9 2033     South Eastern Sydney Local Health District
#> 10 2035     South Eastern Sydney Local Health District
#> # ℹ 636 more rows
```
